NorthWest Genomics Center of Excellence
…
             "seven_day_percent" = `7-Day Percent`,
             "datetime" = `Date/Time Updated`)) %>%
    # make the date ranges for the plot
    # group each date range
    group_by(start_date,end_date) %>%
    # assign each date range an id wtih dplyr::cur_group_id()
    mutate(group_id = cur_group_id()) %>%
    # create labels for the groups
    mutate(group_label = paste(start_date, " - \n", end_date)) %>%
    # add % to the percent labels
    mutate(percent_label = paste0(seven_day_percent,"%")) %>%
    ungroup()
)

# A tibble: 78 × 9
   start_date          end_date            variant    seven_day_count
   <dttm>              <dttm>              <chr>                <dbl>
 1 2023-04-30 00:00:00 2023-05-13 00:00:00 BA.2.75                  2
 2 2023-04-30 00:00:00 2023-05-13 00:00:00 BA.5                     1
 3 2023-04-30 00:00:00 2023-05-13 00:00:00 BN.1                     1
 4 2023-04-30 00:00:00 2023-05-13 00:00:00 CH.1.1                   4
 5 2023-04-30 00:00:00 2023-05-13 00:00:00 EG.5                     2
 6 2023-04-30 00:00:00 2023-05-13 00:00:00 XBB                      8
 7 2023-04-30 00:00:00 2023-05-13 00:00:00 XBB.1.16                27
 8 2023-04-30 00:00:00 2023-05-13 00:00:00 XBB.1.16.1               7
 9 2023-04-30 00:00:00 2023-05-13 00:00:00 XBB.1.5                 90
10 2023-04-30 00:00:00 2023-05-13 00:00:00 XBB.1.5.1                2
# ℹ 68 more rows
# ℹ 5 more variables: seven_day_percent <dbl>, datetime <dttm>, group_id <int>,
#   group_label <chr>, percent_label <chr>
…
